Evaluating Causal Microbiome Models
…
We can summarize and visualize the results, both statically and interactively. 
.pull-left[

```r
summary(fit)
```

```
## Mediation analysis on compositional outcome 
## ---
## Data:  118 samples, 55 taxa, 4 mediators
## Model:  pretreatment 
## ---
## Direct effect
## # A tibble: 55 × 4
##    Taxon                estimate   `5 %`  `95 %`
##    <fct>                   <dbl>   <dbl>   <dbl>
##  1 Defluviitalea          0      -0.0001  0.0001
##  2 Gordonibacter         -0.0001 -0.0004  0     
##  3 Anaerotruncus         -0.0001 -0.0004  0     
##  4 Asaccharobacter       -0.0002 -0.0006 -0.0001
##  5 Lactonifactor          0      -0.0004  0.0004
##  6 Anaerosporobacter      0      -0.0002  0.0004
##  7 Actinomyces           -0.0006 -0.0018  0     
##  8 Acetanaerobacterium    0.0002 -0.0003  0.0008
##  9 Eggerthella           -0.0002 -0.0008  0.0004
## 10 Pseudoflavonifractor   0      -0.0007  0.0006
## # … with 45 more rows
## ---
## Indirect effect
## # A tibble: 55 × 4
##    Taxon                estimate   `5 %` `95 %`
##    <fct>                   <dbl>   <dbl>  <dbl>
##  1 Defluviitalea               0 -0.0001 0.0001
##  2 Gordonibacter               0 -0.0003 0.0001
##  3 Anaerotruncus               0 -0.0002 0.0003
##  4 Asaccharobacter             0 -0.0003 0.0002
##  5 Lactonifactor               0 -0.0004 0.0003
##  6 Anaerosporobacter           0 -0.0002 0.0003
##  7 Actinomyces                 0 -0.0007 0.0009
##  8 Acetanaerobacterium         0 -0.0006 0.0006
##  9 Eggerthella                 0 -0.0007 0.0007
## 10 Pseudoflavonifractor        0 -0.0006 0.0006
## # … with 45 more rows
```
…
