Simulation - Methods for Biological Data Workshop
…
    Published

      February 7, 2024

Warning: package 'tidyr' was built under R version 4.3.2

Traditional scDesign

Code

mapping <- read_csv("https://github.com/krisrs1128/talks/raw/master/2024/20240207/data/mapping.csv")
samples <- read_csv("https://github.com/krisrs1128/talks/raw/master/2024/20240207/data/filtered_samples.csv")
samples

#> # A tibble: 97 x 51
#>    sample       ASV1  ASV2  ASV3  ASV4  ASV5  ASV6  ASV7  ASV8  ASV9 ASV10 ASV11
#>                     
#>  1 11737.D00M~   166 42045  3693 35849  7675   766   144     0 14809    30     0
#>  2 11737.D00M~   121 49431   723 35162  8583     0    30     0 16196     9     0
#>  3 11737.D00M~  2191 56981   454 52279 11726   216    33     0 22959     5     0
#>  4 11737.D00M~  4838 57675   538 55429 22998    20    85     0 21823    13     0
#>  5 11737.D00M~  4193 56755  1615 43132 13457    25    71     0 17916     7     2
#>  6 11737.D00M~  1905 67780     4 43142 20209   395    96     0 23125   105     0
#>  7 11737.D00M~  7794 66081  6217 40672  8844    67    97     0 15607     7     0
#>  8 11737.D00M~  5222 82628  1286 55916 19077   197    15     0 22289    16     0
#>  9 11737.D00M~  2209 37632   158 58404 14561  1276    28     0 29196   230    13
#> 10 11737.D01M~   535 59601  1953 45201 14544   883   107     0 25674    18     0
#> # i 87 more rows
#> # i 39 more variables: ASV12 , ASV13 , ASV14 , ASV15 ,
#> #   ASV16 , ASV17 , ASV18 , ASV19 , ASV20 ,
#> #   ASV21 , ASV22 , ASV23 , ASV24 , ASV25 ,
#> #   ASV26 , ASV27 , ASV28 , ASV29 , ASV30 ,
#> #   ASV31 , ASV32 , ASV33 , ASV34 , ASV35 ,
#> #   ASV36 , ASV37 , ASV38 , ASV39 , ASV40 , ...

Code

samples_long <- samples |>
  pivot_longer(-sample, names_to = "ASV") |>
  filter(ASV %in% glue("ASV{1:16}")) |>
  left_join(mapping)
samples_long

#> # A tibble: 1,552 x 7
#>    sample       ASV   value  time subject  phase Description              
#>                                        
#>  1 11737.D00MA1 ASV1    166     0 mouse A1 naive naive mouse faecal sample
#>  2 11737.D00MA1 ASV2  42045     0 mouse A1 naive naive mouse faecal sample
#>  3 11737.D00MA1 ASV3   3693     0 mouse A1 naive naive mouse faecal sample
#>  4 11737.D00MA1 ASV4  35849     0 mouse A1 naive naive mouse faecal sample
#>  5 11737.D00MA1 ASV5   7675     0 mouse A1 naive naive mouse faecal sample
#>  6 11737.D00MA1 ASV6    766     0 mouse A1 naive naive mouse faecal sample
#>  7 11737.D00MA1 ASV7    144     0 mouse A1 naive naive mouse faecal sample
#>  8 11737.D00MA1 ASV8      0     0 mouse A1 naive naive mouse faecal sample
#>  9 11737.D00MA1 ASV9  14809     0 mouse A1 naive naive mouse faecal sample
#> 10 11737.D00MA1 ASV10    30     0 mouse A1 naive naive mouse faecal sample
#> # i 1,542 more rows
…
Code

samples_df <- sample(fit) |>
  pivot_experiment()
samples_df

#> # A tibble: 4,850 x 10
#>    replicate newdata_index feature value  time sample  subject phase Description
#>                                    
#>  1 counts_1              1 ASV1     4666     0 11737.~ mouse ~ naive naive mous~
#>  2 counts_1              1 ASV2    13056     0 11737.~ mouse ~ naive naive mous~
#>  3 counts_1              1 ASV3      796     0 11737.~ mouse ~ naive naive mous~
#>  4 counts_1              1 ASV4    14731     0 11737.~ mouse ~ naive naive mous~
#>  5 counts_1              1 ASV5    21594     0 11737.~ mouse ~ naive naive mous~
#>  6 counts_1              1 ASV6       49     0 11737.~ mouse ~ naive naive mous~
#>  7 counts_1              1 ASV7       94     0 11737.~ mouse ~ naive naive mous~
#>  8 counts_1              1 ASV8      100     0 11737.~ mouse ~ naive naive mous~
#>  9 counts_1              1 ASV9     6121     0 11737.~ mouse ~ naive naive mous~
#> 10 counts_1              1 ASV10       3     0 11737.~ mouse ~ naive naive mous~
#> # i 4,840 more rows
#> # i 1 more variable: celltype 
…
